<?xml version="1.0" encoding="utf-8"?>
<!-- Generator: Adobe Illustrator 21.0.2, SVG Export Plug-In . SVG Version: 6.00 Build 0)  -->
<svg version="1.1" id="Layer_1" xmlns="http://www.w3.org/2000/svg" xmlns:xlink="http://www.w3.org/1999/xlink" x="0px" y="0px"
	 viewBox="0 0 53 40" style="enable-background:new 0 0 53 40;" xml:space="preserve">
<style type="text/css">
	.st0{fill:#FFFFFF;}
	.st1{opacity:0.53;fill:#FFFFFF;}
	.st2{opacity:0.36;fill:#FFFFFF;}
	.st3{opacity:0.92;fill:#FFFFFF;}
	.st4{opacity:0.85;fill:#FFFFFF;}
	.st5{opacity:0.87;fill:#FFFFFF;}
	.st6{opacity:0.73;fill:#FFFFFF;}
	.st7{opacity:0.67;fill:#FFFFFF;}
	.st8{opacity:0.61;fill:#FFFFFF;}
	.st9{opacity:0.44;fill:#FFFFFF;}
	.st10{opacity:0.31;fill:#FFFFFF;}
	.st11{opacity:0.52;fill:#FFFFFF;}
</style>
<g>
	<g>
		<path class="st0" d="M36.1,26.4c-1.7,0.3-2.6,1.5-2.6,3.7c0,2.2,1.2,3.7,2.9,3.7c0.8,0,1.6-0.3,3.1-1v1.8c-1.9,0.9-3,1.1-4.5,1.1
			c-1.6,0-2.8-0.4-3.7-1.4c-1-1-1.5-2.2-1.5-3.7c0-3.2,2.3-5.3,5.8-5.3c2.3,0,3.8,1,3.8,2.6c0,1-0.7,1.7-1.8,1.7
			c-0.6,0-1-0.1-1.6-0.5V26.4z"/>
		<path class="st0" d="M27.7,30.6c1.5-1.9,2.1-2.7,2.1-3.6c0-0.9-0.7-1.7-1.7-1.7c-0.6,0-1.2,0.3-1.4,0.6v3.9l-2.5,3.3v-7.5h-2.4
			l-3.9,6.5v-6.5h-1.4l-3.6,0.9v0.9l1.9,0.2v8h2.5l3.8-6.2v6.2h2.8L27.7,30.6z"/>
		<path class="st0" d="M5.4,34.3c0.3,0,0.4,0,0.6,0c2,0,3.1-1.3,3.1-3.7c0-2-0.9-3.1-2.5-3.1c-0.3,0-0.6,0-1.1,0.1V34.3z M5.4,38.6
			L7.1,39l0,0.9H0.7V39l1.5-0.4V27.5H0.5v-1l3.9-1.2h1v1.3c1.8-1.1,2.5-1.3,3.4-1.3c2.2,0,3.8,2,3.8,4.8c0,3.2-2.1,5.4-5.5,5.4
			c-0.4,0-1,0-1.7-0.1V38.6z"/>
	</g>
	<rect x="50.6" y="12.3" class="st1" width="2.5" height="4.9"/>
	<rect x="45.6" y="5" class="st2" width="4.9" height="7.3"/>
	<rect x="24.2" y="17.2" class="st3" width="9.8" height="2.4"/>
	<rect x="33.9" y="12.3" class="st3" width="6.1" height="4.9"/>
	<rect x="33.9" y="9.8" class="st4" width="6.1" height="2.5"/>
	<rect x="40" y="12.3" class="st5" width="3.7" height="4.9"/>
	<polygon class="st6" points="40,12.3 43.7,12.3 43.7,5 33.9,5 33.9,9.8 40,9.8 	"/>
	<rect x="43.7" y="12.3" class="st6" width="1.9" height="4.9"/>
	<rect x="45.6" y="12.3" class="st7" width="4.9" height="4.9"/>
	<rect x="33.9" y="2" class="st8" width="9.8" height="3"/>
	<rect x="33.9" y="0.1" class="st9" width="9.8" height="1.9"/>
	<rect x="43.7" y="2" class="st10" width="1.9" height="3"/>
	<rect x="43.7" y="5" class="st11" width="1.9" height="7.3"/>
</g>
</svg>
